,contoh,,,,,,,,Intensitas Seragan,,,Luas  Pengendalian,,,,,,
Pendahuluan,tahun,Bulan,Prov,Kab,Kec,Tanaman,OPT,LuasPertanaman (ha),Ringan,Berat,Jumlah,APBN,APBD I,APBD II,Masya-rakat,Jumlah,Cara Pengendalian,Harga Rata-rata/ Ton (Rp) ***)
tes,2021,3,DIY,Sleman,Gamping,Kelapa,Antraknosa Colletotricum gloeosporioidaes),30,1,5,6,1,1,1,1,4,KT M B K,50000
tes,2021,3,DIY,Sleman,Gamping,Kelapa,Aspidiotus destructor,30,3,4,7,1,2,4,5,12,KT M B ,50000
tes,2021,3,DIY,Sleman,Gamping,Kelapa,Batrachedra arenosella,30,6,8,14,1,3,1,1,6,KT M ,50000
tes,2021,3,DIY,Sleman,Gamping,Kelapa,Aspidiotus destructor,30,9,12,21,1,4,-2,-3,0,KT M B ,50000
tes,2021,3,DIY,Sleman,Gamping,Kelapa,Batrachedra arenosella,30,12,16,28,1,5,-5,-7,-6,KT M ,50000
tes,2021,3,DIY,Sleman,Gamping,Kelapa,Aspidiotus destructor,30,15,20,35,1,6,-8,-11,-12,KT M B ,50000
tes,2021,3,DIY,Sleman,Gamping,Kelapa,Batrachedra arenosella,30,18,24,42,1,7,-11,-15,-18,KT M ,50000
tes,2021,3,DIY,Sleman,Gamping,Kelapa,Aspidiotus destructor,30,21,28,49,1,8,-14,-19,-24,KT M B ,50000
tes,2021,3,DIY,Sleman,Gamping,Kelapa,Batrachedra arenosella,30,24,32,56,1,9,-17,-23,-30,KT M ,50000
tes,2021,3,DIY,Sleman,Gamping,Kelapa,Aspidiotus destructor,30,27,36,63,1,10,-20,-27,-36,KT M B ,50000
tes,2021,3,DIY,Sleman,Gamping,Kelapa,Batrachedra arenosella,30,30,40,70,1,11,-23,-31,-42,KT M ,50000
tes,2021,3,DIY,Sleman,Gamping,Kelapa,Aspidiotus destructor,30,33,44,77,1,12,-26,-35,-48,KT M B ,50000
tes,2021,3,DIY,Sleman,Gamping,Kelapa,Batrachedra arenosella,30,36,48,84,1,13,-29,-39,-54,KT M ,50000
tes,2021,3,DIY,Sleman,Gamping,Kelapa,Aspidiotus destructor,30,39,52,91,1,14,-32,-43,-60,KT M B ,50000
tes,2021,3,DIY,Sleman,Gamping,Kelapa,Batrachedra arenosella,30,42,56,98,1,15,-35,-47,-66,KT M ,50000
tes,2021,3,DIY,Sleman,Gamping,Kelapa,Aspidiotus destructor,30,45,60,105,1,16,-38,-51,-72,KT M B ,50000
tes,2021,3,DIY,Sleman,Gamping,Kelapa,Batrachedra arenosella,30,48,64,112,1,17,-41,-55,-78,KT M ,50000
tes,2021,3,DIY,Sleman,Gamping,Kelapa,Aspidiotus destructor,30,51,68,119,1,18,-44,-59,-84,KT M B ,50000
tes,2021,3,DIY,Sleman,Gamping,Kelapa,Batrachedra arenosella,30,54,72,126,1,19,-47,-63,-90,KT M ,50000
tes,2021,3,DIY,Sleman,Gamping,Kelapa,Aspidiotus destructor,30,57,76,133,1,20,-50,-67,-96,KT M B ,50000
tes,2021,3,DIY,Sleman,Gamping,Kelapa,Batrachedra arenosella,30,60,80,140,1,21,-53,-71,-102,KT M ,50000
tes,2021,3,DIY,Sleman,Gamping,Kelapa,Aspidiotus destructor,30,63,84,147,1,22,-56,-75,-108,KT M B ,50000
tes,2021,3,DIY,Sleman,Gamping,Kelapa,Batrachedra arenosella,30,66,88,154,1,23,-59,-79,-114,KT M ,50000
tes,2021,3,DIY,Sleman,Gamping,Kelapa,Aspidiotus destructor,30,69,92,161,1,24,-62,-83,-120,KT M B ,50000
tes,2021,3,DIY,Sleman,Gamping,Kelapa,Batrachedra arenosella,30,72,96,168,1,25,-65,-87,-126,KT M ,50000
tes,2021,3,DIY,Sleman,Gamping,Kelapa,Aspidiotus destructor,30,75,100,175,1,26,-68,-91,-132,KT M B ,50000
tes,2021,3,DIY,Sleman,Gamping,Kelapa,Batrachedra arenosella,30,78,104,182,1,27,-71,-95,-138,KT M ,50000
tes,2021,3,DIY,Sleman,Gamping,Kelapa,Aspidiotus destructor,30,81,108,189,1,28,-74,-99,-144,KT M B ,50000
tes,2021,3,DIY,Sleman,Gamping,Kelapa,Batrachedra arenosella,30,84,112,196,1,29,-77,-103,-150,KT M ,50000
tes,2021,3,DIY,Sleman,Gamping,Kelapa,Aspidiotus destructor,30,87,116,203,1,30,-80,-107,-156,KT M B ,50000
tes,2021,3,DIY,Sleman,Gamping,Kelapa,Batrachedra arenosella,30,90,120,210,1,31,-83,-111,-162,KT M ,50000
tes,2021,3,DIY,Sleman,Gamping,Kelapa,Aspidiotus destructor,30,93,124,217,1,32,-86,-115,-168,KT M B ,50000
tes,2021,3,DIY,Sleman,Gamping,Kelapa,Batrachedra arenosella,30,96,128,224,1,33,-89,-119,-174,KT M ,50000
tes,2021,3,DIY,Sleman,Gamping,Kelapa,Aspidiotus destructor,30,99,132,231,1,34,-92,-123,-180,KT M B ,50000
tes,2021,3,DIY,Sleman,Gamping,Kelapa,Batrachedra arenosella,30,102,136,238,1,35,-95,-127,-186,KT M ,50000
tes,2021,3,DIY,Sleman,Gamping,Kelapa,Aspidiotus destructor,30,105,140,245,1,36,-98,-131,-192,KT M B ,50000
tes,2021,3,DIY,Sleman,Gamping,Kelapa,Batrachedra arenosella,30,108,144,252,1,37,-101,-135,-198,KT M ,50000
tes,2021,3,DIY,Sleman,Gamping,Kelapa,Aspidiotus destructor,30,111,148,259,1,38,-104,-139,-204,KT M B ,50000
tes,2021,3,DIY,Sleman,Gamping,Kelapa,Batrachedra arenosella,30,114,152,266,1,39,-107,-143,-210,KT M ,50000
tes,2021,3,DIY,Sleman,Gamping,Kelapa,Aspidiotus destructor,30,117,156,273,1,40,-110,-147,-216,KT M B ,50000
tes,2021,3,DIY,Sleman,Gamping,Kelapa,Batrachedra arenosella,30,120,160,280,1,41,-113,-151,-222,KT M ,50000
tes,2021,3,DIY,Sleman,Gamping,Kelapa,Aspidiotus destructor,30,123,164,287,1,42,-116,-155,-228,KT M B ,50000
tes,2021,3,DIY,Sleman,Gamping,Kelapa,Batrachedra arenosella,30,126,168,294,1,43,-119,-159,-234,KT M ,50000
tes,2021,3,DIY,Sleman,Gamping,Kelapa,Aspidiotus destructor,30,129,172,301,1,44,-122,-163,-240,KT M B ,50000
tes,2021,3,DIY,Sleman,Gamping,Kelapa,Batrachedra arenosella,30,132,176,308,1,45,-125,-167,-246,KT M ,50000
tes,2021,3,DIY,Sleman,Gamping,Kelapa,Aspidiotus destructor,30,135,180,315,1,46,-128,-171,-252,KT M B ,50000
tes,2021,3,DIY,Sleman,Gamping,Kelapa,Batrachedra arenosella,30,138,184,322,1,47,-131,-175,-258,KT M ,50000
tes,2021,3,DIY,Sleman,Gamping,Kelapa,Aspidiotus destructor,30,141,188,329,1,48,-134,-179,-264,KT M B ,50000
tes,2021,3,DIY,Sleman,Gamping,Kelapa,Batrachedra arenosella,30,144,192,336,1,49,-137,-183,-270,KT M ,50000
tes,2021,3,DIY,Sleman,Gamping,Kelapa,Aspidiotus destructor,30,147,196,343,1,50,-140,-187,-276,KT M B ,50000
tes,2021,3,DIY,Sleman,Gamping,Kelapa,Batrachedra arenosella,30,150,200,350,1,51,-143,-191,-282,KT M ,50000
tes,2021,3,DIY,Sleman,Gamping,Kelapa,Aspidiotus destructor,30,153,204,357,1,52,-146,-195,-288,KT M B ,50000
tes,2021,3,DIY,Sleman,Gamping,Kelapa,Batrachedra arenosella,30,156,208,364,1,53,-149,-199,-294,KT M ,50000
tes,2021,3,DIY,Sleman,Gamping,Kelapa,Aspidiotus destructor,30,159,212,371,1,54,-152,-203,-300,KT M B ,50000
tes,2021,3,DIY,Sleman,Gamping,Kelapa,Batrachedra arenosella,30,162,216,378,1,55,-155,-207,-306,KT M ,50000
tes,2021,3,DIY,Sleman,Gamping,Kelapa,Aspidiotus destructor,30,165,220,385,1,56,-158,-211,-312,KT M B ,50000
tes,2021,3,DIY,Sleman,Gamping,Kelapa,Batrachedra arenosella,30,168,224,392,1,57,-161,-215,-318,KT M ,50000
tes,2021,3,DIY,Sleman,Gamping,Kelapa,Aspidiotus destructor,30,171,228,399,1,58,-164,-219,-324,KT M B ,50000
tes,2021,3,DIY,Sleman,Gamping,Kelapa,Batrachedra arenosella,30,174,232,406,1,59,-167,-223,-330,KT M ,50000
tes,2021,3,DIY,Sleman,Gamping,Kelapa,Aspidiotus destructor,30,177,236,413,1,60,-170,-227,-336,KT M B ,50000
tes,2021,3,DIY,Sleman,Gamping,Kelapa,Batrachedra arenosella,30,180,240,420,1,61,-173,-231,-342,KT M ,50000
tes,2021,3,DIY,Sleman,Gamping,Kelapa,Aspidiotus destructor,30,183,244,427,1,62,-176,-235,-348,KT M B ,50000
tes,2021,3,DIY,Sleman,Gamping,Kelapa,Batrachedra arenosella,30,186,248,434,1,63,-179,-239,-354,KT M ,50000
tes,2021,3,DIY,Sleman,Gamping,Kelapa,Aspidiotus destructor,30,189,252,441,1,64,-182,-243,-360,KT M B ,50000
tes,2021,3,DIY,Sleman,Gamping,Kelapa,Batrachedra arenosella,30,192,256,448,1,65,-185,-247,-366,KT M ,50000
tes,2021,3,DIY,Sleman,Gamping,Kelapa,Aspidiotus destructor,30,195,260,455,1,66,-188,-251,-372,KT M B ,50000
tes,2021,3,DIY,Sleman,Gamping,Kelapa,Batrachedra arenosella,30,198,264,462,1,67,-191,-255,-378,KT M ,50000
tes,2021,3,DIY,Sleman,Gamping,Kelapa,Aspidiotus destructor,30,201,268,469,1,68,-194,-259,-384,KT M B ,50000
tes,2021,3,DIY,Sleman,Gamping,Kelapa,Batrachedra arenosella,30,204,272,476,1,69,-197,-263,-390,KT M ,50000
tes,2021,3,DIY,Sleman,Gamping,Kelapa,Aspidiotus destructor,30,207,276,483,1,70,-200,-267,-396,KT M B ,50000
tes,2021,3,DIY,Sleman,Gamping,Kelapa,Batrachedra arenosella,30,210,280,490,1,71,-203,-271,-402,KT M ,50000
tes,2021,3,DIY,Sleman,Gamping,Kelapa,Aspidiotus destructor,30,213,284,497,1,72,-206,-275,-408,KT M B ,50000
tes,2021,3,DIY,Sleman,Gamping,Kelapa,Batrachedra arenosella,30,216,288,504,1,73,-209,-279,-414,KT M ,50000
tes,2021,3,DIY,Sleman,Gamping,Kelapa,Aspidiotus destructor,30,219,292,511,1,74,-212,-283,-420,KT M B ,50000
tes,2021,3,DIY,Sleman,Gamping,Kelapa,Batrachedra arenosella,30,222,296,518,1,75,-215,-287,-426,KT M ,50000
tes,2021,3,DIY,Sleman,Gamping,Kelapa,Aspidiotus destructor,30,225,300,525,1,76,-218,-291,-432,KT M B ,50000
tes,2021,3,DIY,Sleman,Gamping,Kelapa,Batrachedra arenosella,30,228,304,532,1,77,-221,-295,-438,KT M ,50000
tes,2021,3,DIY,Sleman,Gamping,Kelapa,Aspidiotus destructor,30,231,308,539,1,78,-224,-299,-444,KT M B ,50000
tes,2021,3,DIY,Sleman,Gamping,Kelapa,Batrachedra arenosella,30,234,312,546,1,79,-227,-303,-450,KT M ,50000
tes,2021,3,DIY,Sleman,Gamping,Kelapa,Aspidiotus destructor,30,237,316,553,1,80,-230,-307,-456,KT M B ,50000
tes,2021,3,DIY,Sleman,Gamping,Kelapa,Batrachedra arenosella,30,240,320,560,1,81,-233,-311,-462,KT M ,50000
tes,2021,3,DIY,Sleman,Gamping,Kelapa,Aspidiotus destructor,30,243,324,567,1,82,-236,-315,-468,KT M B ,50000
tes,2021,3,DIY,Sleman,Gamping,Kelapa,Batrachedra arenosella,30,246,328,574,1,83,-239,-319,-474,KT M ,50000
tes,2021,3,DIY,Sleman,Gamping,Kelapa,Aspidiotus destructor,30,249,332,581,1,84,-242,-323,-480,KT M B ,50000
tes,2021,3,DIY,Sleman,Gamping,Kelapa,Batrachedra arenosella,30,252,336,588,1,85,-245,-327,-486,KT M ,50000
tes,2021,3,DIY,Sleman,Gamping,Kelapa,Aspidiotus destructor,30,255,340,595,1,86,-248,-331,-492,KT M B ,50000
tes,2021,3,DIY,Sleman,Gamping,Kelapa,Batrachedra arenosella,30,258,344,602,1,87,-251,-335,-498,KT M ,50000
tes,2021,3,DIY,Sleman,Gamping,Kelapa,Aspidiotus destructor,30,261,348,609,1,88,-254,-339,-504,KT M B ,50000
tes,2021,3,DIY,Sleman,Gamping,Kelapa,Batrachedra arenosella,30,264,352,616,1,89,-257,-343,-510,KT M ,50000
tes,2021,3,DIY,Sleman,Gamping,Kelapa,Aspidiotus destructor,30,267,356,623,1,90,-260,-347,-516,KT M B ,50000
tes,2021,3,DIY,Sleman,Gamping,Kelapa,Batrachedra arenosella,30,270,360,630,1,91,-263,-351,-522,KT M ,50000
tes,2021,3,DIY,Sleman,Gamping,Kelapa,Aspidiotus destructor,30,273,364,637,1,92,-266,-355,-528,KT M B ,50000
tes,2021,3,DIY,Sleman,Gamping,Kelapa,Batrachedra arenosella,30,276,368,644,1,93,-269,-359,-534,KT M ,50000
tes,2021,3,DIY,Sleman,Gamping,Kelapa,Aspidiotus destructor,30,279,372,651,1,94,-272,-363,-540,KT M B ,50000
tes,2021,3,DIY,Sleman,Gamping,Kelapa,Batrachedra arenosella,30,282,376,658,1,95,-275,-367,-546,KT M ,50000
tes,2021,3,DIY,Sleman,Gamping,Kelapa,Aspidiotus destructor,30,285,380,665,1,96,-278,-371,-552,KT M B ,50000
tes,2021,3,DIY,Sleman,Gamping,Kelapa,Batrachedra arenosella,30,288,384,672,1,97,-281,-375,-558,KT M ,50000
tes,2021,3,DIY,Sleman,Gamping,Kelapa,Aspidiotus destructor,30,291,388,679,1,98,-284,-379,-564,KT M B ,50000
tes,2021,3,DIY,Sleman,Gamping,Kelapa,Batrachedra arenosella,30,294,392,686,1,99,-287,-383,-570,KT M ,50000
tes,2021,3,DIY,Sleman,Gamping,Kelapa,Aspidiotus destructor,30,297,396,693,1,100,-290,-387,-576,KT M B ,50000
tes,2021,3,DIY,Sleman,Gamping,Kelapa,Batrachedra arenosella,30,300,400,700,1,101,-293,-391,-582,KT M ,50000
tes,2021,3,DIY,Sleman,Gamping,Kelapa,Aspidiotus destructor,30,303,404,707,1,102,-296,-395,-588,KT M B ,50000
tes,2021,3,DIY,Sleman,Gamping,Kelapa,Batrachedra arenosella,30,306,408,714,1,103,-299,-399,-594,KT M ,50000
tes,2021,3,DIY,Sleman,Gamping,Kelapa,Aspidiotus destructor,30,309,412,721,1,104,-302,-403,-600,KT M B ,50000
tes,2021,3,DIY,Sleman,Gamping,Kelapa,Batrachedra arenosella,30,312,416,728,1,105,-305,-407,-606,KT M ,50000
tes,2021,3,DIY,Sleman,Gamping,Kelapa,Aspidiotus destructor,30,315,420,735,1,106,-308,-411,-612,KT M B ,50000
tes,2021,3,DIY,Sleman,Gamping,Kelapa,Batrachedra arenosella,30,318,424,742,1,107,-311,-415,-618,KT M ,50000
tes,2021,3,DIY,Sleman,Gamping,Kelapa,Aspidiotus destructor,30,321,428,749,1,108,-314,-419,-624,KT M B ,50000
tes,2021,3,DIY,Sleman,Gamping,Kelapa,Batrachedra arenosella,30,324,432,756,1,109,-317,-423,-630,KT M ,50000
tes,2021,3,DIY,Sleman,Gamping,Kelapa,Aspidiotus destructor,30,327,436,763,1,110,-320,-427,-636,KT M B ,50000
tes,2021,3,DIY,Sleman,Gamping,Kelapa,Batrachedra arenosella,30,330,440,770,1,111,-323,-431,-642,KT M ,50000
tes,2021,3,DIY,Sleman,Gamping,Kelapa,Aspidiotus destructor,30,333,444,777,1,112,-326,-435,-648,KT M B ,50000
tes,2021,3,DIY,Sleman,Gamping,Kelapa,Batrachedra arenosella,30,336,448,784,1,113,-329,-439,-654,KT M ,50000
tes,2021,3,DIY,Sleman,Gamping,Kelapa,Aspidiotus destructor,30,339,452,791,1,114,-332,-443,-660,KT M B ,50000
tes,2021,3,DIY,Sleman,Gamping,Kelapa,Batrachedra arenosella,30,342,456,798,1,115,-335,-447,-666,KT M ,50000
tes,2021,3,DIY,Sleman,Gamping,Kelapa,Aspidiotus destructor,30,345,460,805,1,116,-338,-451,-672,KT M B ,50000
tes,2021,3,DIY,Sleman,Gamping,Kelapa,Batrachedra arenosella,30,348,464,812,1,117,-341,-455,-678,KT M ,50000
tes,2021,3,DIY,Sleman,Gamping,Kelapa,Aspidiotus destructor,30,351,468,819,1,118,-344,-459,-684,KT M B ,50000
tes,2021,3,DIY,Sleman,Gamping,Kelapa,Batrachedra arenosella,30,354,472,826,1,119,-347,-463,-690,KT M ,50000
tes,2021,3,DIY,Sleman,Gamping,Kelapa,Aspidiotus destructor,30,357,476,833,1,120,-350,-467,-696,KT M B ,50000
tes,2021,3,DIY,Sleman,Gamping,Kelapa,Batrachedra arenosella,30,360,480,840,1,121,-353,-471,-702,KT M ,50000
tes,2021,3,DIY,Sleman,Gamping,Kelapa,Aspidiotus destructor,30,363,484,847,1,122,-356,-475,-708,KT M B ,50000
tes,2021,3,DIY,Sleman,Gamping,Kelapa,Batrachedra arenosella,30,366,488,854,1,123,-359,-479,-714,KT M ,50000
tes,2021,3,DIY,Sleman,Gamping,Kelapa,Aspidiotus destructor,30,369,492,861,1,124,-362,-483,-720,KT M B ,50000
tes,2021,3,DIY,Sleman,Gamping,Kelapa,Batrachedra arenosella,30,372,496,868,1,125,-365,-487,-726,KT M ,50000
tes,2021,3,DIY,Sleman,Gamping,Kelapa,Aspidiotus destructor,30,375,500,875,1,126,-368,-491,-732,KT M B ,50000
tes,2021,3,DIY,Sleman,Gamping,Kelapa,Batrachedra arenosella,30,378,504,882,1,127,-371,-495,-738,KT M ,50000
tes,2021,3,DIY,Sleman,Gamping,Kelapa,Aspidiotus destructor,30,381,508,889,1,128,-374,-499,-744,KT M B ,50000
tes,2021,3,DIY,Sleman,Gamping,Kelapa,Batrachedra arenosella,30,384,512,896,1,129,-377,-503,-750,KT M ,50000
tes,2021,3,DIY,Sleman,Gamping,Kelapa,Aspidiotus destructor,30,387,516,903,1,130,-380,-507,-756,KT M B ,50000
tes,2021,3,DIY,Sleman,Gamping,Kelapa,Batrachedra arenosella,30,390,520,910,1,131,-383,-511,-762,KT M ,50000
tes,2021,3,DIY,Sleman,Gamping,Kelapa,Aspidiotus destructor,30,393,524,917,1,132,-386,-515,-768,KT M B ,50000
tes,2021,3,DIY,Sleman,Gamping,Kelapa,Batrachedra arenosella,30,396,528,924,1,133,-389,-519,-774,KT M ,50000
tes,2021,3,DIY,Sleman,Gamping,Kelapa,Aspidiotus destructor,30,399,532,931,1,134,-392,-523,-780,KT M B ,50000
tes,2021,3,DIY,Sleman,Gamping,Kelapa,Batrachedra arenosella,30,402,536,938,1,135,-395,-527,-786,KT M ,50000
tes,2021,3,DIY,Sleman,Gamping,Kelapa,Aspidiotus destructor,30,405,540,945,1,136,-398,-531,-792,KT M B ,50000
tes,2021,3,DIY,Sleman,Gamping,Kelapa,Batrachedra arenosella,30,408,544,952,1,137,-401,-535,-798,KT M ,50000
tes,2021,3,DIY,Sleman,Gamping,Kelapa,Aspidiotus destructor,30,411,548,959,1,138,-404,-539,-804,KT M B ,50000
tes,2021,3,DIY,Sleman,Gamping,Kelapa,Batrachedra arenosella,30,414,552,966,1,139,-407,-543,-810,KT M ,50000
tes,2021,3,DIY,Sleman,Gamping,Kelapa,Aspidiotus destructor,30,417,556,973,1,140,-410,-547,-816,KT M B ,50000
tes,2021,3,DIY,Sleman,Gamping,Kelapa,Batrachedra arenosella,30,420,560,980,1,141,-413,-551,-822,KT M ,50000
tes,2021,3,DIY,Sleman,Gamping,Kelapa,Aspidiotus destructor,30,423,564,987,1,142,-416,-555,-828,KT M B ,50000
tes,2021,3,DIY,Sleman,Gamping,Kelapa,Batrachedra arenosella,30,426,568,994,1,143,-419,-559,-834,KT M ,50000
tes,2021,3,DIY,Sleman,Gamping,Kelapa,Aspidiotus destructor,30,429,572,1001,1,144,-422,-563,-840,KT M B ,50000
tes,2021,3,DIY,Sleman,Gamping,Kelapa,Batrachedra arenosella,30,432,576,1008,1,145,-425,-567,-846,KT M ,50000
tes,2021,3,DIY,Sleman,Gamping,Kelapa,Aspidiotus destructor,30,435,580,1015,1,146,-428,-571,-852,KT M B ,50000
tes,2021,3,DIY,Sleman,Gamping,Kelapa,Batrachedra arenosella,30,438,584,1022,1,147,-431,-575,-858,KT M ,50000
tes,2021,3,DIY,Sleman,Gamping,Kelapa,Aspidiotus destructor,30,441,588,1029,1,148,-434,-579,-864,KT M B ,50000
tes,2021,3,DIY,Sleman,Gamping,Kelapa,Batrachedra arenosella,30,444,592,1036,1,149,-437,-583,-870,KT M ,50000
tes,2021,3,DIY,Sleman,Gamping,Kelapa,Aspidiotus destructor,30,447,596,1043,1,150,-440,-587,-876,KT M B ,50000
tes,2021,3,DIY,Sleman,Gamping,Kelapa,Batrachedra arenosella,30,450,600,1050,1,151,-443,-591,-882,KT M ,50000
tes,2021,3,DIY,Sleman,Gamping,Kelapa,Aspidiotus destructor,30,453,604,1057,1,152,-446,-595,-888,KT M B ,50000
tes,2021,3,DIY,Sleman,Gamping,Kelapa,Batrachedra arenosella,30,456,608,1064,1,153,-449,-599,-894,KT M ,50000
tes,2021,3,DIY,Sleman,Gamping,Kelapa,Aspidiotus destructor,30,459,612,1071,1,154,-452,-603,-900,KT M B ,50000
tes,2021,3,DIY,Sleman,Gamping,Kelapa,Batrachedra arenosella,30,462,616,1078,1,155,-455,-607,-906,KT M ,50000
tes,2021,3,DIY,Sleman,Gamping,Kelapa,Aspidiotus destructor,30,465,620,1085,1,156,-458,-611,-912,KT M B ,50000
tes,2021,3,DIY,Sleman,Gamping,Kelapa,Batrachedra arenosella,30,468,624,1092,1,157,-461,-615,-918,KT M ,50000
tes,2021,3,DIY,Sleman,Gamping,Kelapa,Aspidiotus destructor,30,471,628,1099,1,158,-464,-619,-924,KT M B ,50000
tes,2021,3,DIY,Sleman,Gamping,Kelapa,Batrachedra arenosella,30,474,632,1106,1,159,-467,-623,-930,KT M ,50000
tes,2021,3,DIY,Sleman,Gamping,Kelapa,Aspidiotus destructor,30,477,636,1113,1,160,-470,-627,-936,KT M B ,50000
tes,2021,3,DIY,Sleman,Gamping,Kelapa,Batrachedra arenosella,30,480,640,1120,1,161,-473,-631,-942,KT M ,50000
tes,2021,3,DIY,Sleman,Gamping,Kelapa,Aspidiotus destructor,30,483,644,1127,1,162,-476,-635,-948,KT M B ,50000
tes,2021,3,DIY,Sleman,Gamping,Kelapa,Batrachedra arenosella,30,486,648,1134,1,163,-479,-639,-954,KT M ,50000
tes,2021,3,DIY,Sleman,Gamping,Kelapa,Aspidiotus destructor,30,489,652,1141,1,164,-482,-643,-960,KT M B ,50000
tes,2021,3,DIY,Sleman,Gamping,Kelapa,Batrachedra arenosella,30,492,656,1148,1,165,-485,-647,-966,KT M ,50000
tes,2021,3,DIY,Sleman,Gamping,Kelapa,Aspidiotus destructor,30,495,660,1155,1,166,-488,-651,-972,KT M B ,50000
tes,2021,3,DIY,Sleman,Gamping,Kelapa,Batrachedra arenosella,30,498,664,1162,1,167,-491,-655,-978,KT M ,50000
tes,2021,3,DIY,Sleman,Gamping,Kelapa,Aspidiotus destructor,30,501,668,1169,1,168,-494,-659,-984,KT M B ,50000
tes,2021,3,DIY,Sleman,Gamping,Kelapa,Batrachedra arenosella,30,504,672,1176,1,169,-497,-663,-990,KT M ,50000
tes,2021,3,DIY,Sleman,Gamping,Kelapa,Aspidiotus destructor,30,507,676,1183,1,170,-500,-667,-996,KT M B ,50000
tes,2021,3,DIY,Sleman,Gamping,Kelapa,Batrachedra arenosella,30,510,680,1190,1,171,-503,-671,-1002,KT M ,50000
tes,2021,3,DIY,Sleman,Gamping,Kelapa,Aspidiotus destructor,30,513,684,1197,1,172,-506,-675,-1008,KT M B ,50000
tes,2021,3,DIY,Sleman,Gamping,Kelapa,Batrachedra arenosella,30,516,688,1204,1,173,-509,-679,-1014,KT M ,50000
tes,2021,3,DIY,Sleman,Gamping,Kelapa,Aspidiotus destructor,30,519,692,1211,1,174,-512,-683,-1020,KT M B ,50000
tes,2021,3,DIY,Sleman,Gamping,Kelapa,Batrachedra arenosella,30,522,696,1218,1,175,-515,-687,-1026,KT M ,50000
tes,2021,3,DIY,Sleman,Gamping,Kelapa,Aspidiotus destructor,30,525,700,1225,1,176,-518,-691,-1032,KT M B ,50000
tes,2021,3,DIY,Sleman,Gamping,Kelapa,Batrachedra arenosella,30,528,704,1232,1,177,-521,-695,-1038,KT M ,50000
tes,2021,3,DIY,Sleman,Gamping,Kelapa,Aspidiotus destructor,30,531,708,1239,1,178,-524,-699,-1044,KT M B ,50000
tes,2021,3,DIY,Sleman,Gamping,Kelapa,Batrachedra arenosella,30,534,712,1246,1,179,-527,-703,-1050,KT M ,50000
tes,2021,3,DIY,Sleman,Gamping,Kelapa,Aspidiotus destructor,30,537,716,1253,1,180,-530,-707,-1056,KT M B ,50000
tes,2021,3,DIY,Sleman,Gamping,Kelapa,Batrachedra arenosella,30,540,720,1260,1,181,-533,-711,-1062,KT M ,50000
tes,2021,3,DIY,Sleman,Gamping,Kelapa,Aspidiotus destructor,30,543,724,1267,1,182,-536,-715,-1068,KT M B ,50000
tes,2021,3,DIY,Sleman,Gamping,Kelapa,Batrachedra arenosella,30,546,728,1274,1,183,-539,-719,-1074,KT M ,50000
tes,2021,3,DIY,Sleman,Gamping,Kelapa,Aspidiotus destructor,30,549,732,1281,1,184,-542,-723,-1080,KT M B ,50000
tes,2021,3,DIY,Sleman,Gamping,Kelapa,Batrachedra arenosella,30,552,736,1288,1,185,-545,-727,-1086,KT M ,50000
tes,2021,3,DIY,Sleman,Gamping,Kelapa,Aspidiotus destructor,30,555,740,1295,1,186,-548,-731,-1092,KT M B ,50000
tes,2021,3,DIY,Sleman,Gamping,Kelapa,Batrachedra arenosella,30,558,744,1302,1,187,-551,-735,-1098,KT M ,50000
tes,2021,3,DIY,Sleman,Gamping,Kelapa,Aspidiotus destructor,30,561,748,1309,1,188,-554,-739,-1104,KT M B ,50000
tes,2021,3,DIY,Sleman,Gamping,Kelapa,Batrachedra arenosella,30,564,752,1316,1,189,-557,-743,-1110,KT M ,50000
tes,2021,3,DIY,Sleman,Gamping,Kelapa,Aspidiotus destructor,30,567,756,1323,1,190,-560,-747,-1116,KT M B ,50000
tes,2021,3,DIY,Sleman,Gamping,Kelapa,Batrachedra arenosella,30,570,760,1330,1,191,-563,-751,-1122,KT M ,50000
tes,2021,3,DIY,Sleman,Gamping,Kelapa,Aspidiotus destructor,30,573,764,1337,1,192,-566,-755,-1128,KT M B ,50000
tes,2021,3,DIY,Sleman,Gamping,Kelapa,Batrachedra arenosella,30,576,768,1344,1,193,-569,-759,-1134,KT M ,50000
tes,2021,3,DIY,Sleman,Gamping,Kelapa,Aspidiotus destructor,30,579,772,1351,1,194,-572,-763,-1140,KT M B ,50000
tes,2021,3,DIY,Sleman,Gamping,Kelapa,Batrachedra arenosella,30,582,776,1358,1,195,-575,-767,-1146,KT M ,50000
tes,2021,3,DIY,Sleman,Gamping,Kelapa,Aspidiotus destructor,30,585,780,1365,1,196,-578,-771,-1152,KT M B ,50000
tes,2021,3,DIY,Sleman,Gamping,Kelapa,Batrachedra arenosella,30,588,784,1372,1,197,-581,-775,-1158,KT M ,50000
tes,2021,3,DIY,Sleman,Gamping,Kelapa,Aspidiotus destructor,30,591,788,1379,1,198,-584,-779,-1164,KT M B ,50000
tes,2021,3,DIY,Sleman,Gamping,Kelapa,Batrachedra arenosella,30,594,792,1386,1,199,-587,-783,-1170,KT M ,50000
tes,2021,3,DIY,Sleman,Gamping,Kelapa,Aspidiotus destructor,30,597,796,1393,1,200,-590,-787,-1176,KT M B ,50000
tes,2021,3,DIY,Sleman,Gamping,Kelapa,Batrachedra arenosella,30,600,800,1400,1,201,-593,-791,-1182,KT M ,50000
tes,2021,3,DIY,Sleman,Gamping,Kelapa,Aspidiotus destructor,30,603,804,1407,1,202,-596,-795,-1188,KT M B ,50000
tes,2021,3,DIY,Sleman,Gamping,Kelapa,Batrachedra arenosella,30,606,808,1414,1,203,-599,-799,-1194,KT M ,50000
tes,2021,3,DIY,Sleman,Gamping,Kelapa,Aspidiotus destructor,30,609,812,1421,1,204,-602,-803,-1200,KT M B ,50000
tes,2021,3,DIY,Sleman,Gamping,Kelapa,Batrachedra arenosella,30,612,816,1428,1,205,-605,-807,-1206,KT M ,50000
tes,2021,3,DIY,Sleman,Gamping,Kelapa,Aspidiotus destructor,30,615,820,1435,1,206,-608,-811,-1212,KT M B ,50000
tes,2021,3,DIY,Sleman,Gamping,Kelapa,Batrachedra arenosella,30,618,824,1442,1,207,-611,-815,-1218,KT M ,50000
tes,2021,3,DIY,Sleman,Gamping,Kelapa,Aspidiotus destructor,30,621,828,1449,1,208,-614,-819,-1224,KT M B ,50000
tes,2021,3,DIY,Sleman,Gamping,Kelapa,Batrachedra arenosella,30,624,832,1456,1,209,-617,-823,-1230,KT M ,50000
tes,2021,3,DIY,Sleman,Gamping,Kelapa,Aspidiotus destructor,30,627,836,1463,1,210,-620,-827,-1236,KT M B ,50000
tes,2021,3,DIY,Sleman,Gamping,Kelapa,Batrachedra arenosella,30,630,840,1470,1,211,-623,-831,-1242,KT M ,50000
tes,2021,3,DIY,Sleman,Gamping,Kelapa,Aspidiotus destructor,30,633,844,1477,1,212,-626,-835,-1248,KT M B ,50000
tes,2021,3,DIY,Sleman,Gamping,Kelapa,Batrachedra arenosella,30,636,848,1484,1,213,-629,-839,-1254,KT M ,50000
tes,2021,3,DIY,Sleman,Gamping,Kelapa,Aspidiotus destructor,30,639,852,1491,1,214,-632,-843,-1260,KT M B ,50000
tes,2021,3,DIY,Sleman,Gamping,Kelapa,Batrachedra arenosella,30,642,856,1498,1,215,-635,-847,-1266,KT M ,50000
tes,2021,3,DIY,Sleman,Gamping,Kelapa,Aspidiotus destructor,30,645,860,1505,1,216,-638,-851,-1272,KT M B ,50000
tes,2021,3,DIY,Sleman,Gamping,Kelapa,Batrachedra arenosella,30,648,864,1512,1,217,-641,-855,-1278,KT M ,50000
tes,2021,3,DIY,Sleman,Gamping,Kelapa,Aspidiotus destructor,30,651,868,1519,1,218,-644,-859,-1284,KT M B ,50000
tes,2021,3,DIY,Sleman,Gamping,Kelapa,Batrachedra arenosella,30,654,872,1526,1,219,-647,-863,-1290,KT M ,50000
tes,2021,3,DIY,Sleman,Gamping,Kelapa,Aspidiotus destructor,30,657,876,1533,1,220,-650,-867,-1296,KT M B ,50000
tes,2021,3,DIY,Sleman,Gamping,Kelapa,Batrachedra arenosella,30,660,880,1540,1,221,-653,-871,-1302,KT M ,50000
tes,2021,3,DIY,Sleman,Gamping,Kelapa,Aspidiotus destructor,30,663,884,1547,1,222,-656,-875,-1308,KT M B ,50000
tes,2021,3,DIY,Sleman,Gamping,Kelapa,Batrachedra arenosella,30,666,888,1554,1,223,-659,-879,-1314,KT M ,50000
tes,2021,3,DIY,Sleman,Gamping,Kelapa,Aspidiotus destructor,30,669,892,1561,1,224,-662,-883,-1320,KT M B ,50000
tes,2021,3,DIY,Sleman,Gamping,Kelapa,Batrachedra arenosella,30,672,896,1568,1,225,-665,-887,-1326,KT M ,50000
tes,2021,3,DIY,Sleman,Gamping,Kelapa,Aspidiotus destructor,30,675,900,1575,1,226,-668,-891,-1332,KT M B ,50000
tes,2021,3,DIY,Sleman,Gamping,Kelapa,Batrachedra arenosella,30,678,904,1582,1,227,-671,-895,-1338,KT M ,50000
tes,2021,3,DIY,Sleman,Gamping,Kelapa,Aspidiotus destructor,30,681,908,1589,1,228,-674,-899,-1344,KT M B ,50000
tes,2021,3,DIY,Sleman,Gamping,Kelapa,Batrachedra arenosella,30,684,912,1596,1,229,-677,-903,-1350,KT M ,50000
tes,2021,3,DIY,Sleman,Gamping,Kelapa,Aspidiotus destructor,30,687,916,1603,1,230,-680,-907,-1356,KT M B ,50000
tes,2021,3,DIY,Sleman,Gamping,Kelapa,Batrachedra arenosella,30,690,920,1610,1,231,-683,-911,-1362,KT M ,50000
tes,2021,3,DIY,Sleman,Gamping,Kelapa,Aspidiotus destructor,30,693,924,1617,1,232,-686,-915,-1368,KT M B ,50000
tes,2021,3,DIY,Sleman,Gamping,Kelapa,Batrachedra arenosella,30,696,928,1624,1,233,-689,-919,-1374,KT M ,50000
tes,2021,3,DIY,Sleman,Gamping,Kelapa,Aspidiotus destructor,30,699,932,1631,1,234,-692,-923,-1380,KT M B ,50000
tes,2021,3,DIY,Sleman,Gamping,Kelapa,Batrachedra arenosella,30,702,936,1638,1,235,-695,-927,-1386,KT M ,50000
tes,2021,3,DIY,Sleman,Gamping,Kelapa,Aspidiotus destructor,30,705,940,1645,1,236,-698,-931,-1392,KT M B ,50000
tes,2021,3,DIY,Sleman,Gamping,Kelapa,Batrachedra arenosella,30,708,944,1652,1,237,-701,-935,-1398,KT M ,50000
tes,2021,3,DIY,Sleman,Gamping,Kelapa,Aspidiotus destructor,30,711,948,1659,1,238,-704,-939,-1404,KT M B ,50000
tes,2021,3,DIY,Sleman,Gamping,Kelapa,Batrachedra arenosella,30,714,952,1666,1,239,-707,-943,-1410,KT M ,50000
tes,2021,3,DIY,Sleman,Gamping,Kelapa,Aspidiotus destructor,30,717,956,1673,1,240,-710,-947,-1416,KT M B ,50000
tes,2021,3,DIY,Sleman,Gamping,Kelapa,Batrachedra arenosella,30,720,960,1680,1,241,-713,-951,-1422,KT M ,50000
tes,2021,3,DIY,Sleman,Gamping,Kelapa,Aspidiotus destructor,30,723,964,1687,1,242,-716,-955,-1428,KT M B ,50000
tes,2021,3,DIY,Sleman,Gamping,Kelapa,Batrachedra arenosella,30,726,968,1694,1,243,-719,-959,-1434,KT M ,50000
tes,2021,3,DIY,Sleman,Gamping,Kelapa,Aspidiotus destructor,30,729,972,1701,1,244,-722,-963,-1440,KT M B ,50000
tes,2021,3,DIY,Sleman,Gamping,Kelapa,Batrachedra arenosella,30,732,976,1708,1,245,-725,-967,-1446,KT M ,50000
tes,2021,3,DIY,Sleman,Gamping,Kelapa,Aspidiotus destructor,30,735,980,1715,1,246,-728,-971,-1452,KT M B ,50000
tes,2021,3,DIY,Sleman,Gamping,Kelapa,Batrachedra arenosella,30,738,984,1722,1,247,-731,-975,-1458,KT M ,50000
tes,2021,3,DIY,Sleman,Gamping,Kelapa,Aspidiotus destructor,30,741,988,1729,1,248,-734,-979,-1464,KT M B ,50000
tes,2021,3,DIY,Sleman,Gamping,Kelapa,Batrachedra arenosella,30,744,992,1736,1,249,-737,-983,-1470,KT M ,50000
tes,2021,3,DIY,Sleman,Gamping,Kelapa,Aspidiotus destructor,30,747,996,1743,1,250,-740,-987,-1476,KT M B ,50000
tes,2021,3,DIY,Sleman,Gamping,Kelapa,Batrachedra arenosella,30,750,1000,1750,1,251,-743,-991,-1482,KT M ,50000
tes,2021,3,DIY,Sleman,Gamping,Kelapa,Aspidiotus destructor,30,753,1004,1757,1,252,-746,-995,-1488,KT M B ,50000
tes,2021,3,DIY,Sleman,Gamping,Kelapa,Batrachedra arenosella,30,756,1008,1764,1,253,-749,-999,-1494,KT M ,50000
tes,2021,3,DIY,Sleman,Gamping,Kelapa,Aspidiotus destructor,30,759,1012,1771,1,254,-752,-1003,-1500,KT M B ,50000
tes,2021,3,DIY,Sleman,Gamping,Kelapa,Batrachedra arenosella,30,762,1016,1778,1,255,-755,-1007,-1506,KT M ,50000
tes,2021,3,DIY,Sleman,Gamping,Kelapa,Aspidiotus destructor,30,765,1020,1785,1,256,-758,-1011,-1512,KT M B ,50000
tes,2021,3,DIY,Sleman,Gamping,Kelapa,Batrachedra arenosella,30,768,1024,1792,1,257,-761,-1015,-1518,KT M ,50000
tes,2021,3,DIY,Sleman,Gamping,Kelapa,Aspidiotus destructor,30,771,1028,1799,1,258,-764,-1019,-1524,KT M B ,50000
tes,2021,3,DIY,Sleman,Gamping,Kelapa,Batrachedra arenosella,30,774,1032,1806,1,259,-767,-1023,-1530,KT M ,50000
tes,2021,3,DIY,Sleman,Gamping,Kelapa,Aspidiotus destructor,30,777,1036,1813,1,260,-770,-1027,-1536,KT M B ,50000
tes,2021,3,DIY,Sleman,Gamping,Kelapa,Batrachedra arenosella,30,780,1040,1820,1,261,-773,-1031,-1542,KT M ,50000
tes,2021,3,DIY,Sleman,Gamping,Kelapa,Aspidiotus destructor,30,783,1044,1827,1,262,-776,-1035,-1548,KT M B ,50000
tes,2021,3,DIY,Sleman,Gamping,Kelapa,Batrachedra arenosella,30,786,1048,1834,1,263,-779,-1039,-1554,KT M ,50000
tes,2021,3,DIY,Sleman,Gamping,Kelapa,Aspidiotus destructor,30,789,1052,1841,1,264,-782,-1043,-1560,KT M B ,50000
tes,2021,3,DIY,Sleman,Gamping,Kelapa,Batrachedra arenosella,30,792,1056,1848,1,265,-785,-1047,-1566,KT M ,50000
tes,2021,3,DIY,Sleman,Gamping,Kelapa,Aspidiotus destructor,30,795,1060,1855,1,266,-788,-1051,-1572,KT M B ,50000
tes,2021,3,DIY,Sleman,Gamping,Kelapa,Batrachedra arenosella,30,798,1064,1862,1,267,-791,-1055,-1578,KT M ,50000
tes,2021,3,DIY,Sleman,Gamping,Kelapa,Aspidiotus destructor,30,801,1068,1869,1,268,-794,-1059,-1584,KT M B ,50000
tes,2021,3,DIY,Sleman,Gamping,Kelapa,Batrachedra arenosella,30,804,1072,1876,1,269,-797,-1063,-1590,KT M ,50000
tes,2021,3,DIY,Sleman,Gamping,Kelapa,Aspidiotus destructor,30,807,1076,1883,1,270,-800,-1067,-1596,KT M B ,50000
tes,2021,3,DIY,Sleman,Gamping,Kelapa,Batrachedra arenosella,30,810,1080,1890,1,271,-803,-1071,-1602,KT M ,50000
tes,2021,3,DIY,Sleman,Gamping,Kelapa,Aspidiotus destructor,30,813,1084,1897,1,272,-806,-1075,-1608,KT M B ,50000
tes,2021,3,DIY,Sleman,Gamping,Kelapa,Batrachedra arenosella,30,816,1088,1904,1,273,-809,-1079,-1614,KT M ,50000
tes,2021,3,DIY,Sleman,Gamping,Kelapa,Aspidiotus destructor,30,819,1092,1911,1,274,-812,-1083,-1620,KT M B ,50000
tes,2021,3,DIY,Sleman,Gamping,Kelapa,Batrachedra arenosella,30,822,1096,1918,1,275,-815,-1087,-1626,KT M ,50000
tes,2021,3,DIY,Sleman,Gamping,Kelapa,Aspidiotus destructor,30,825,1100,1925,1,276,-818,-1091,-1632,KT M B ,50000
tes,2021,3,DIY,Sleman,Gamping,Kelapa,Batrachedra arenosella,30,828,1104,1932,1,277,-821,-1095,-1638,KT M ,50000
tes,2021,3,DIY,Sleman,Gamping,Kelapa,Aspidiotus destructor,30,831,1108,1939,1,278,-824,-1099,-1644,KT M B ,50000
tes,2021,3,DIY,Sleman,Gamping,Kelapa,Batrachedra arenosella,30,834,1112,1946,1,279,-827,-1103,-1650,KT M ,50000
tes,2021,3,DIY,Sleman,Gamping,Kelapa,Aspidiotus destructor,30,837,1116,1953,1,280,-830,-1107,-1656,KT M B ,50000
tes,2021,3,DIY,Sleman,Gamping,Kelapa,Batrachedra arenosella,30,840,1120,1960,1,281,-833,-1111,-1662,KT M ,50000
tes,2021,3,DIY,Sleman,Gamping,Kelapa,Aspidiotus destructor,30,843,1124,1967,1,282,-836,-1115,-1668,KT M B ,50000
tes,2021,3,DIY,Sleman,Gamping,Kelapa,Batrachedra arenosella,30,846,1128,1974,1,283,-839,-1119,-1674,KT M ,50000
tes,2021,3,DIY,Sleman,Gamping,Kelapa,Aspidiotus destructor,30,849,1132,1981,1,284,-842,-1123,-1680,KT M B ,50000
tes,2021,3,DIY,Sleman,Gamping,Kelapa,Batrachedra arenosella,30,852,1136,1988,1,285,-845,-1127,-1686,KT M ,50000
tes,2021,3,DIY,Sleman,Gamping,Kelapa,Aspidiotus destructor,30,855,1140,1995,1,286,-848,-1131,-1692,KT M B ,50000
tes,2021,3,DIY,Sleman,Gamping,Kelapa,Batrachedra arenosella,30,858,1144,2002,1,287,-851,-1135,-1698,KT M ,50000
tes,2021,3,DIY,Sleman,Gamping,Kelapa,Aspidiotus destructor,30,861,1148,2009,1,288,-854,-1139,-1704,KT M B ,50000
tes,2021,3,DIY,Sleman,Gamping,Kelapa,Batrachedra arenosella,30,864,1152,2016,1,289,-857,-1143,-1710,KT M ,50000
tes,2021,3,DIY,Sleman,Gamping,Kelapa,Aspidiotus destructor,30,867,1156,2023,1,290,-860,-1147,-1716,KT M B ,50000
tes,2021,3,DIY,Sleman,Gamping,Kelapa,Batrachedra arenosella,30,870,1160,2030,1,291,-863,-1151,-1722,KT M ,50000
tes,2021,3,DIY,Sleman,Gamping,Kelapa,Aspidiotus destructor,30,873,1164,2037,1,292,-866,-1155,-1728,KT M B ,50000
tes,2021,3,DIY,Sleman,Gamping,Kelapa,Batrachedra arenosella,30,876,1168,2044,1,293,-869,-1159,-1734,KT M ,50000
tes,2021,3,DIY,Sleman,Gamping,Kelapa,Aspidiotus destructor,30,879,1172,2051,1,294,-872,-1163,-1740,KT M B ,50000
tes,2021,3,DIY,Sleman,Gamping,Kelapa,Batrachedra arenosella,30,882,1176,2058,1,295,-875,-1167,-1746,KT M ,50000
tes,2021,3,DIY,Sleman,Gamping,Kelapa,Aspidiotus destructor,30,885,1180,2065,1,296,-878,-1171,-1752,KT M B ,50000
tes,2021,3,DIY,Sleman,Gamping,Kelapa,Batrachedra arenosella,30,888,1184,2072,1,297,-881,-1175,-1758,KT M ,50000
tes,2021,3,DIY,Sleman,Gamping,Kelapa,Aspidiotus destructor,30,891,1188,2079,1,298,-884,-1179,-1764,KT M B ,50000
tes,2021,3,DIY,Sleman,Gamping,Kelapa,Batrachedra arenosella,30,894,1192,2086,1,299,-887,-1183,-1770,KT M ,50000
tes,2021,3,DIY,Sleman,Gamping,Kelapa,Aspidiotus destructor,30,897,1196,2093,1,300,-890,-1187,-1776,KT M B ,50000
tes,2021,3,DIY,Sleman,Gamping,Kelapa,Batrachedra arenosella,30,900,1200,2100,1,301,-893,-1191,-1782,KT M ,50000
tes,2021,3,DIY,Sleman,Gamping,Kelapa,Aspidiotus destructor,30,903,1204,2107,1,302,-896,-1195,-1788,KT M B ,50000
tes,2021,3,DIY,Sleman,Gamping,Kelapa,Batrachedra arenosella,30,906,1208,2114,1,303,-899,-1199,-1794,KT M ,50000
tes,2021,3,DIY,Sleman,Gamping,Kelapa,Aspidiotus destructor,30,909,1212,2121,1,304,-902,-1203,-1800,KT M B ,50000
tes,2021,3,DIY,Sleman,Gamping,Kelapa,Batrachedra arenosella,30,912,1216,2128,1,305,-905,-1207,-1806,KT M ,50000
tes,2021,3,DIY,Sleman,Gamping,Kelapa,Aspidiotus destructor,30,915,1220,2135,1,306,-908,-1211,-1812,KT M B ,50000
tes,2021,3,DIY,Sleman,Gamping,Kelapa,Batrachedra arenosella,30,918,1224,2142,1,307,-911,-1215,-1818,KT M ,50000
tes,2021,3,DIY,Sleman,Gamping,Kelapa,Aspidiotus destructor,30,921,1228,2149,1,308,-914,-1219,-1824,KT M B ,50000
tes,2021,3,DIY,Sleman,Gamping,Kelapa,Batrachedra arenosella,30,924,1232,2156,1,309,-917,-1223,-1830,KT M ,50000
tes,2021,3,DIY,Sleman,Gamping,Kelapa,Aspidiotus destructor,30,927,1236,2163,1,310,-920,-1227,-1836,KT M B ,50000
tes,2021,3,DIY,Sleman,Gamping,Kelapa,Batrachedra arenosella,30,930,1240,2170,1,311,-923,-1231,-1842,KT M ,50000
tes,2021,3,DIY,Sleman,Gamping,Kelapa,Aspidiotus destructor,30,933,1244,2177,1,312,-926,-1235,-1848,KT M B ,50000
tes,2021,3,DIY,Sleman,Gamping,Kelapa,Batrachedra arenosella,30,936,1248,2184,1,313,-929,-1239,-1854,KT M ,50000
tes,2021,3,DIY,Sleman,Gamping,Kelapa,Aspidiotus destructor,30,939,1252,2191,1,314,-932,-1243,-1860,KT M B ,50000
tes,2021,3,DIY,Sleman,Gamping,Kelapa,Batrachedra arenosella,30,942,1256,2198,1,315,-935,-1247,-1866,KT M ,50000
tes,2021,3,DIY,Sleman,Gamping,Kelapa,Aspidiotus destructor,30,945,1260,2205,1,316,-938,-1251,-1872,KT M B ,50000
tes,2021,3,DIY,Sleman,Gamping,Kelapa,Batrachedra arenosella,30,948,1264,2212,1,317,-941,-1255,-1878,KT M ,50000
tes,2021,3,DIY,Sleman,Gamping,Kelapa,Aspidiotus destructor,30,951,1268,2219,1,318,-944,-1259,-1884,KT M B ,50000
tes,2021,3,DIY,Sleman,Gamping,Kelapa,Batrachedra arenosella,30,954,1272,2226,1,319,-947,-1263,-1890,KT M ,50000
tes,2021,3,DIY,Sleman,Gamping,Kelapa,Aspidiotus destructor,30,957,1276,2233,1,320,-950,-1267,-1896,KT M B ,50000
tes,2021,3,DIY,Sleman,Gamping,Kelapa,Batrachedra arenosella,30,960,1280,2240,1,321,-953,-1271,-1902,KT M ,50000
tes,2021,3,DIY,Sleman,Gamping,Kelapa,Aspidiotus destructor,30,963,1284,2247,1,322,-956,-1275,-1908,KT M B ,50000
tes,2021,3,DIY,Sleman,Gamping,Kelapa,Batrachedra arenosella,30,966,1288,2254,1,323,-959,-1279,-1914,KT M ,50000
tes,2021,3,DIY,Sleman,Gamping,Kelapa,Aspidiotus destructor,30,969,1292,2261,1,324,-962,-1283,-1920,KT M B ,50000
tes,2021,3,DIY,Sleman,Gamping,Kelapa,Batrachedra arenosella,30,972,1296,2268,1,325,-965,-1287,-1926,KT M ,50000
tes,2021,3,DIY,Sleman,Gamping,Kelapa,Aspidiotus destructor,30,975,1300,2275,1,326,-968,-1291,-1932,KT M B ,50000
tes,2021,3,DIY,Sleman,Gamping,Kelapa,Batrachedra arenosella,30,978,1304,2282,1,327,-971,-1295,-1938,KT M ,50000
tes,2021,3,DIY,Sleman,Gamping,Kelapa,Aspidiotus destructor,30,981,1308,2289,1,328,-974,-1299,-1944,KT M B ,50000
tes,2021,3,DIY,Sleman,Gamping,Kelapa,Batrachedra arenosella,30,984,1312,2296,1,329,-977,-1303,-1950,KT M ,50000
tes,2021,3,DIY,Sleman,Gamping,Kelapa,Aspidiotus destructor,30,987,1316,2303,1,330,-980,-1307,-1956,KT M B ,50000
tes,2021,3,DIY,Sleman,Gamping,Kelapa,Batrachedra arenosella,30,990,1320,2310,1,331,-983,-1311,-1962,KT M ,50000
tes,2021,3,DIY,Sleman,Gamping,Kelapa,Aspidiotus destructor,30,993,1324,2317,1,332,-986,-1315,-1968,KT M B ,50000
tes,2021,3,DIY,Sleman,Gamping,Kelapa,Batrachedra arenosella,30,996,1328,2324,1,333,-989,-1319,-1974,KT M ,50000
tes,2021,3,DIY,Sleman,Gamping,Kelapa,Aspidiotus destructor,30,999,1332,2331,1,334,-992,-1323,-1980,KT M B ,50000
tes,2021,3,DIY,Sleman,Gamping,Kelapa,Batrachedra arenosella,30,1002,1336,2338,1,335,-995,-1327,-1986,KT M ,50000
tes,2021,3,DIY,Sleman,Gamping,Kelapa,Aspidiotus destructor,30,1005,1340,2345,1,336,-998,-1331,-1992,KT M B ,50000
tes,2021,3,DIY,Sleman,Gamping,Kelapa,Batrachedra arenosella,30,1008,1344,2352,1,337,-1001,-1335,-1998,KT M ,50000
tes,2021,3,DIY,Sleman,Gamping,Kelapa,Aspidiotus destructor,30,1011,1348,2359,1,338,-1004,-1339,-2004,KT M B ,50000
tes,2021,3,DIY,Sleman,Gamping,Kelapa,Batrachedra arenosella,30,1014,1352,2366,1,339,-1007,-1343,-2010,KT M ,50000
tes,2021,3,DIY,Sleman,Gamping,Kelapa,Aspidiotus destructor,30,1017,1356,2373,1,340,-1010,-1347,-2016,KT M B ,50000
tes,2021,3,DIY,Sleman,Gamping,Kelapa,Batrachedra arenosella,30,1020,1360,2380,1,341,-1013,-1351,-2022,KT M ,50000
tes,2021,3,DIY,Sleman,Gamping,Kelapa,Aspidiotus destructor,30,1023,1364,2387,1,342,-1016,-1355,-2028,KT M B ,50000
tes,2021,3,DIY,Sleman,Gamping,Kelapa,Batrachedra arenosella,30,1026,1368,2394,1,343,-1019,-1359,-2034,KT M ,50000
tes,2021,3,DIY,Sleman,Gamping,Kelapa,Aspidiotus destructor,30,1029,1372,2401,1,344,-1022,-1363,-2040,KT M B ,50000
tes,2021,3,DIY,Sleman,Gamping,Kelapa,Batrachedra arenosella,30,1032,1376,2408,1,345,-1025,-1367,-2046,KT M ,50000
tes,2021,3,DIY,Sleman,Gamping,Kelapa,Aspidiotus destructor,30,1035,1380,2415,1,346,-1028,-1371,-2052,KT M B ,50000
tes,2021,3,DIY,Sleman,Gamping,Kelapa,Batrachedra arenosella,30,1038,1384,2422,1,347,-1031,-1375,-2058,KT M ,50000
tes,2021,3,DIY,Sleman,Gamping,Kelapa,Aspidiotus destructor,30,1041,1388,2429,1,348,-1034,-1379,-2064,KT M B ,50000
tes,2021,3,DIY,Sleman,Gamping,Kelapa,Batrachedra arenosella,30,1044,1392,2436,1,349,-1037,-1383,-2070,KT M ,50000
tes,2021,3,DIY,Sleman,Gamping,Kelapa,Aspidiotus destructor,30,1047,1396,2443,1,350,-1040,-1387,-2076,KT M B ,50000
tes,2021,3,DIY,Sleman,Gamping,Kelapa,Batrachedra arenosella,30,1050,1400,2450,1,351,-1043,-1391,-2082,KT M ,50000
tes,2021,3,DIY,Sleman,Gamping,Kelapa,Aspidiotus destructor,30,1053,1404,2457,1,352,-1046,-1395,-2088,KT M B ,50000
tes,2021,3,DIY,Sleman,Gamping,Kelapa,Batrachedra arenosella,30,1056,1408,2464,1,353,-1049,-1399,-2094,KT M ,50000
tes,2021,3,DIY,Sleman,Gamping,Kelapa,Aspidiotus destructor,30,1059,1412,2471,1,354,-1052,-1403,-2100,KT M B ,50000
tes,2021,3,DIY,Sleman,Gamping,Kelapa,Batrachedra arenosella,30,1062,1416,2478,1,355,-1055,-1407,-2106,KT M ,50000
tes,2021,3,DIY,Sleman,Gamping,Kelapa,Aspidiotus destructor,30,1065,1420,2485,1,356,-1058,-1411,-2112,KT M B ,50000
tes,2021,3,DIY,Sleman,Gamping,Kelapa,Batrachedra arenosella,30,1068,1424,2492,1,357,-1061,-1415,-2118,KT M ,50000
tes,2021,3,DIY,Sleman,Gamping,Kelapa,Aspidiotus destructor,30,1071,1428,2499,1,358,-1064,-1419,-2124,KT M B ,50000
tes,2021,3,DIY,Sleman,Gamping,Kelapa,Batrachedra arenosella,30,1074,1432,2506,1,359,-1067,-1423,-2130,KT M ,50000
tes,2021,3,DIY,Sleman,Gamping,Kelapa,Aspidiotus destructor,30,1077,1436,2513,1,360,-1070,-1427,-2136,KT M B ,50000
tes,2021,3,DIY,Sleman,Gamping,Kelapa,Batrachedra arenosella,30,1080,1440,2520,1,361,-1073,-1431,-2142,KT M ,50000
tes,2021,3,DIY,Sleman,Gamping,Kelapa,Aspidiotus destructor,30,1083,1444,2527,1,362,-1076,-1435,-2148,KT M B ,50000
tes,2021,3,DIY,Sleman,Gamping,Kelapa,Batrachedra arenosella,30,1086,1448,2534,1,363,-1079,-1439,-2154,KT M ,50000
tes,2021,3,DIY,Sleman,Gamping,Kelapa,Aspidiotus destructor,30,1089,1452,2541,1,364,-1082,-1443,-2160,KT M B ,50000
tes,2021,3,DIY,Sleman,Gamping,Kelapa,Batrachedra arenosella,30,1092,1456,2548,1,365,-1085,-1447,-2166,KT M ,50000
tes,2021,3,DIY,Sleman,Gamping,Kelapa,Aspidiotus destructor,30,1095,1460,2555,1,366,-1088,-1451,-2172,KT M B ,50000
tes,2021,3,DIY,Sleman,Gamping,Kelapa,Batrachedra arenosella,30,1098,1464,2562,1,367,-1091,-1455,-2178,KT M ,50000
tes,2021,3,DIY,Sleman,Gamping,Kelapa,Aspidiotus destructor,30,1101,1468,2569,1,368,-1094,-1459,-2184,KT M B ,50000
tes,2021,3,DIY,Sleman,Gamping,Kelapa,Batrachedra arenosella,30,1104,1472,2576,1,369,-1097,-1463,-2190,KT M ,50000
tes,2021,3,DIY,Sleman,Gamping,Kelapa,Aspidiotus destructor,30,1107,1476,2583,1,370,-1100,-1467,-2196,KT M B ,50000
tes,2021,3,DIY,Sleman,Gamping,Kelapa,Batrachedra arenosella,30,1110,1480,2590,1,371,-1103,-1471,-2202,KT M ,50000
tes,2021,3,DIY,Sleman,Gamping,Kelapa,Aspidiotus destructor,30,1113,1484,2597,1,372,-1106,-1475,-2208,KT M B ,50000
tes,2021,3,DIY,Sleman,Gamping,Kelapa,Batrachedra arenosella,30,1116,1488,2604,1,373,-1109,-1479,-2214,KT M ,50000
tes,2021,3,DIY,Sleman,Gamping,Kelapa,Aspidiotus destructor,30,1119,1492,2611,1,374,-1112,-1483,-2220,KT M B ,50000
tes,2021,3,DIY,Sleman,Gamping,Kelapa,Batrachedra arenosella,30,1122,1496,2618,1,375,-1115,-1487,-2226,KT M ,50000
tes,2021,3,DIY,Sleman,Gamping,Kelapa,Aspidiotus destructor,30,1125,1500,2625,1,376,-1118,-1491,-2232,KT M B ,50000
tes,2021,3,DIY,Sleman,Gamping,Kelapa,Batrachedra arenosella,30,1128,1504,2632,1,377,-1121,-1495,-2238,KT M ,50000
tes,2021,3,DIY,Sleman,Gamping,Kelapa,Aspidiotus destructor,30,1131,1508,2639,1,378,-1124,-1499,-2244,KT M B ,50000
tes,2021,3,DIY,Sleman,Gamping,Kelapa,Batrachedra arenosella,30,1134,1512,2646,1,379,-1127,-1503,-2250,KT M ,50000
tes,2021,3,DIY,Sleman,Gamping,Kelapa,Aspidiotus destructor,30,1137,1516,2653,1,380,-1130,-1507,-2256,KT M B ,50000
tes,2021,3,DIY,Sleman,Gamping,Kelapa,Batrachedra arenosella,30,1140,1520,2660,1,381,-1133,-1511,-2262,KT M ,50000
tes,2021,3,DIY,Sleman,Gamping,Kelapa,Aspidiotus destructor,30,1143,1524,2667,1,382,-1136,-1515,-2268,KT M B ,50000
tes,2021,3,DIY,Sleman,Gamping,Kelapa,Batrachedra arenosella,30,1146,1528,2674,1,383,-1139,-1519,-2274,KT M ,50000
tes,2021,3,DIY,Sleman,Gamping,Kelapa,Aspidiotus destructor,30,1149,1532,2681,1,384,-1142,-1523,-2280,KT M B ,50000
tes,2021,3,DIY,Sleman,Gamping,Kelapa,Batrachedra arenosella,30,1152,1536,2688,1,385,-1145,-1527,-2286,KT M ,50000
tes,2021,3,DIY,Sleman,Gamping,Kelapa,Aspidiotus destructor,30,1155,1540,2695,1,386,-1148,-1531,-2292,KT M B ,50000
tes,2021,3,DIY,Sleman,Gamping,Kelapa,Batrachedra arenosella,30,1158,1544,2702,1,387,-1151,-1535,-2298,KT M ,50000
tes,2021,3,DIY,Sleman,Gamping,Kelapa,Aspidiotus destructor,30,1161,1548,2709,1,388,-1154,-1539,-2304,KT M B ,50000
tes,2021,3,DIY,Sleman,Gamping,Kelapa,Batrachedra arenosella,30,1164,1552,2716,1,389,-1157,-1543,-2310,KT M ,50000
tes,2021,3,DIY,Sleman,Gamping,Kelapa,Aspidiotus destructor,30,1167,1556,2723,1,390,-1160,-1547,-2316,KT M B ,50000
tes,2021,3,DIY,Sleman,Gamping,Kelapa,Batrachedra arenosella,30,1170,1560,2730,1,391,-1163,-1551,-2322,KT M ,50000
tes,2021,3,DIY,Sleman,Gamping,Kelapa,Aspidiotus destructor,30,1173,1564,2737,1,392,-1166,-1555,-2328,KT M B ,50000
tes,2021,3,DIY,Sleman,Gamping,Kelapa,Batrachedra arenosella,30,1176,1568,2744,1,393,-1169,-1559,-2334,KT M ,50000
tes,2021,3,DIY,Sleman,Gamping,Kelapa,Aspidiotus destructor,30,1179,1572,2751,1,394,-1172,-1563,-2340,KT M B ,50000
tes,2021,3,DIY,Sleman,Gamping,Kelapa,Batrachedra arenosella,30,1182,1576,2758,1,395,-1175,-1567,-2346,KT M ,50000
tes,2021,3,DIY,Sleman,Gamping,Kelapa,Aspidiotus destructor,30,1185,1580,2765,1,396,-1178,-1571,-2352,KT M B ,50000
tes,2021,3,DIY,Sleman,Gamping,Kelapa,Batrachedra arenosella,30,1188,1584,2772,1,397,-1181,-1575,-2358,KT M ,50000
tes,2021,3,DIY,Sleman,Gamping,Kelapa,Aspidiotus destructor,30,1191,1588,2779,1,398,-1184,-1579,-2364,KT M B ,50000
tes,2021,3,DIY,Sleman,Gamping,Kelapa,Batrachedra arenosella,30,1194,1592,2786,1,399,-1187,-1583,-2370,KT M ,50000
tes,2021,3,DIY,Sleman,Gamping,Kelapa,Aspidiotus destructor,30,1197,1596,2793,1,400,-1190,-1587,-2376,KT M B ,50000
tes,2021,3,DIY,Sleman,Gamping,Kelapa,Batrachedra arenosella,30,1200,1600,2800,1,401,-1193,-1591,-2382,KT M ,50000
tes,2021,3,DIY,Sleman,Gamping,Kelapa,Aspidiotus destructor,30,1203,1604,2807,1,402,-1196,-1595,-2388,KT M B ,50000
tes,2021,3,DIY,Sleman,Gamping,Kelapa,Batrachedra arenosella,30,1206,1608,2814,1,403,-1199,-1599,-2394,KT M ,50000
tes,2021,3,DIY,Sleman,Gamping,Kelapa,Aspidiotus destructor,30,1209,1612,2821,1,404,-1202,-1603,-2400,KT M B ,50000
tes,2021,3,DIY,Sleman,Gamping,Kelapa,Batrachedra arenosella,30,1212,1616,2828,1,405,-1205,-1607,-2406,KT M ,50000
tes,2021,3,DIY,Sleman,Gamping,Kelapa,Aspidiotus destructor,30,1215,1620,2835,1,406,-1208,-1611,-2412,KT M B ,50000
tes,2021,3,DIY,Sleman,Gamping,Kelapa,Batrachedra arenosella,30,1218,1624,2842,1,407,-1211,-1615,-2418,KT M ,50000
tes,2021,3,DIY,Sleman,Gamping,Kelapa,Aspidiotus destructor,30,1221,1628,2849,1,408,-1214,-1619,-2424,KT M B ,50000
tes,2021,3,DIY,Sleman,Gamping,Kelapa,Batrachedra arenosella,30,1224,1632,2856,1,409,-1217,-1623,-2430,KT M ,50000
tes,2021,3,DIY,Sleman,Gamping,Kelapa,Aspidiotus destructor,30,1227,1636,2863,1,410,-1220,-1627,-2436,KT M B ,50000
tes,2021,3,DIY,Sleman,Gamping,Kelapa,Batrachedra arenosella,30,1230,1640,2870,1,411,-1223,-1631,-2442,KT M ,50000
tes,2021,3,DIY,Sleman,Gamping,Kelapa,Aspidiotus destructor,30,1233,1644,2877,1,412,-1226,-1635,-2448,KT M B ,50000
tes,2021,3,DIY,Sleman,Gamping,Kelapa,Batrachedra arenosella,30,1236,1648,2884,1,413,-1229,-1639,-2454,KT M ,50000
tes,2021,3,DIY,Sleman,Gamping,Kelapa,Aspidiotus destructor,30,1239,1652,2891,1,414,-1232,-1643,-2460,KT M B ,50000
tes,2021,3,DIY,Sleman,Gamping,Kelapa,Batrachedra arenosella,30,1242,1656,2898,1,415,-1235,-1647,-2466,KT M ,50000
tes,2021,3,DIY,Sleman,Gamping,Kelapa,Aspidiotus destructor,30,1245,1660,2905,1,416,-1238,-1651,-2472,KT M B ,50000
tes,2021,3,DIY,Sleman,Gamping,Kelapa,Batrachedra arenosella,30,1248,1664,2912,1,417,-1241,-1655,-2478,KT M ,50000
tes,2021,3,DIY,Sleman,Gamping,Kelapa,Aspidiotus destructor,30,1251,1668,2919,1,418,-1244,-1659,-2484,KT M B ,50000
tes,2021,3,DIY,Sleman,Gamping,Kelapa,Batrachedra arenosella,30,1254,1672,2926,1,419,-1247,-1663,-2490,KT M ,50000
tes,2021,3,DIY,Sleman,Gamping,Kelapa,Aspidiotus destructor,30,1257,1676,2933,1,420,-1250,-1667,-2496,KT M B ,50000
tes,2021,3,DIY,Sleman,Gamping,Kelapa,Batrachedra arenosella,30,1260,1680,2940,1,421,-1253,-1671,-2502,KT M ,50000
tes,2021,3,DIY,Sleman,Gamping,Kelapa,Aspidiotus destructor,30,1263,1684,2947,1,422,-1256,-1675,-2508,KT M B ,50000
tes,2021,3,DIY,Sleman,Gamping,Kelapa,Batrachedra arenosella,30,1266,1688,2954,1,423,-1259,-1679,-2514,KT M ,50000
tes,2021,3,DIY,Sleman,Gamping,Kelapa,Aspidiotus destructor,30,1269,1692,2961,1,424,-1262,-1683,-2520,KT M B ,50000
tes,2021,3,DIY,Sleman,Gamping,Kelapa,Batrachedra arenosella,30,1272,1696,2968,1,425,-1265,-1687,-2526,KT M ,50000
tes,2021,3,DIY,Sleman,Gamping,Kelapa,Aspidiotus destructor,30,1275,1700,2975,1,426,-1268,-1691,-2532,KT M B ,50000
tes,2021,3,DIY,Sleman,Gamping,Kelapa,Batrachedra arenosella,30,1278,1704,2982,1,427,-1271,-1695,-2538,KT M ,50000
tes,2021,3,DIY,Sleman,Gamping,Kelapa,Aspidiotus destructor,30,1281,1708,2989,1,428,-1274,-1699,-2544,KT M B ,50000
tes,2021,3,DIY,Sleman,Gamping,Kelapa,Batrachedra arenosella,30,1284,1712,2996,1,429,-1277,-1703,-2550,KT M ,50000
tes,2021,3,DIY,Sleman,Gamping,Kelapa,Aspidiotus destructor,30,1287,1716,3003,1,430,-1280,-1707,-2556,KT M B ,50000
tes,2021,3,DIY,Sleman,Gamping,Kelapa,Batrachedra arenosella,30,1290,1720,3010,1,431,-1283,-1711,-2562,KT M ,50000
tes,2021,3,DIY,Sleman,Gamping,Kelapa,Aspidiotus destructor,30,1293,1724,3017,1,432,-1286,-1715,-2568,KT M B ,50000
tes,2021,3,DIY,Sleman,Gamping,Kelapa,Batrachedra arenosella,30,1296,1728,3024,1,433,-1289,-1719,-2574,KT M ,50000
tes,2021,3,DIY,Sleman,Gamping,Kelapa,Aspidiotus destructor,30,1299,1732,3031,1,434,-1292,-1723,-2580,KT M B ,50000
tes,2021,3,DIY,Sleman,Gamping,Kelapa,Batrachedra arenosella,30,1302,1736,3038,1,435,-1295,-1727,-2586,KT M ,50000
tes,2021,3,DIY,Sleman,Gamping,Kelapa,Aspidiotus destructor,30,1305,1740,3045,1,436,-1298,-1731,-2592,KT M B ,50000
tes,2021,3,DIY,Sleman,Gamping,Kelapa,Batrachedra arenosella,30,1308,1744,3052,1,437,-1301,-1735,-2598,KT M ,50000
tes,2021,3,DIY,Sleman,Gamping,Kelapa,Aspidiotus destructor,30,1311,1748,3059,1,438,-1304,-1739,-2604,KT M B ,50000
tes,2021,3,DIY,Sleman,Gamping,Kelapa,Batrachedra arenosella,30,1314,1752,3066,1,439,-1307,-1743,-2610,KT M ,50000
tes,2021,3,DIY,Sleman,Gamping,Kelapa,Aspidiotus destructor,30,1317,1756,3073,1,440,-1310,-1747,-2616,KT M B ,50000
tes,2021,3,DIY,Sleman,Gamping,Kelapa,Batrachedra arenosella,30,1320,1760,3080,1,441,-1313,-1751,-2622,KT M ,50000
tes,2021,3,DIY,Sleman,Gamping,Kelapa,Aspidiotus destructor,30,1323,1764,3087,1,442,-1316,-1755,-2628,KT M B ,50000
tes,2021,3,DIY,Sleman,Gamping,Kelapa,Batrachedra arenosella,30,1326,1768,3094,1,443,-1319,-1759,-2634,KT M ,50000
tes,2021,3,DIY,Sleman,Gamping,Kelapa,Aspidiotus destructor,30,1329,1772,3101,1,444,-1322,-1763,-2640,KT M B ,50000
tes,2021,3,DIY,Sleman,Gamping,Kelapa,Batrachedra arenosella,30,1332,1776,3108,1,445,-1325,-1767,-2646,KT M ,50000
tes,2021,3,DIY,Sleman,Gamping,Kelapa,Aspidiotus destructor,30,1335,1780,3115,1,446,-1328,-1771,-2652,KT M B ,50000
tes,2021,3,DIY,Sleman,Gamping,Kelapa,Batrachedra arenosella,30,1338,1784,3122,1,447,-1331,-1775,-2658,KT M ,50000
tes,2021,3,DIY,Sleman,Gamping,Kelapa,Aspidiotus destructor,30,1341,1788,3129,1,448,-1334,-1779,-2664,KT M B ,50000
tes,2021,3,DIY,Sleman,Gamping,Kelapa,Batrachedra arenosella,30,1344,1792,3136,1,449,-1337,-1783,-2670,KT M ,50000
tes,2021,3,DIY,Sleman,Gamping,Kelapa,Aspidiotus destructor,30,1347,1796,3143,1,450,-1340,-1787,-2676,KT M B ,50000
tes,2021,3,DIY,Sleman,Gamping,Kelapa,Batrachedra arenosella,30,1350,1800,3150,1,451,-1343,-1791,-2682,KT M ,50000
tes,2021,3,DIY,Sleman,Gamping,Kelapa,Aspidiotus destructor,30,1353,1804,3157,1,452,-1346,-1795,-2688,KT M B ,50000
tes,2021,3,DIY,Sleman,Gamping,Kelapa,Batrachedra arenosella,30,1356,1808,3164,1,453,-1349,-1799,-2694,KT M ,50000
tes,2021,3,DIY,Sleman,Gamping,Kelapa,Aspidiotus destructor,30,1359,1812,3171,1,454,-1352,-1803,-2700,KT M B ,50000
tes,2021,3,DIY,Sleman,Gamping,Kelapa,Batrachedra arenosella,30,1362,1816,3178,1,455,-1355,-1807,-2706,KT M ,50000
tes,2021,3,DIY,Sleman,Gamping,Kelapa,Aspidiotus destructor,30,1365,1820,3185,1,456,-1358,-1811,-2712,KT M B ,50000
tes,2021,3,DIY,Sleman,Gamping,Kelapa,Batrachedra arenosella,30,1368,1824,3192,1,457,-1361,-1815,-2718,KT M ,50000
tes,2021,3,DIY,Sleman,Gamping,Kelapa,Aspidiotus destructor,30,1371,1828,3199,1,458,-1364,-1819,-2724,KT M B ,50000
tes,2021,3,DIY,Sleman,Gamping,Kelapa,Batrachedra arenosella,30,1374,1832,3206,1,459,-1367,-1823,-2730,KT M ,50000
tes,2021,3,DIY,Sleman,Gamping,Kelapa,Aspidiotus destructor,30,1377,1836,3213,1,460,-1370,-1827,-2736,KT M B ,50000
tes,2021,3,DIY,Sleman,Gamping,Kelapa,Batrachedra arenosella,30,1380,1840,3220,1,461,-1373,-1831,-2742,KT M ,50000
tes,2021,3,DIY,Sleman,Gamping,Kelapa,Aspidiotus destructor,30,1383,1844,3227,1,462,-1376,-1835,-2748,KT M B ,50000
tes,2021,3,DIY,Sleman,Gamping,Kelapa,Batrachedra arenosella,30,1386,1848,3234,1,463,-1379,-1839,-2754,KT M ,50000
tes,2021,3,DIY,Sleman,Gamping,Kelapa,Aspidiotus destructor,30,1389,1852,3241,1,464,-1382,-1843,-2760,KT M B ,50000
tes,2021,3,DIY,Sleman,Gamping,Kelapa,Batrachedra arenosella,30,1392,1856,3248,1,465,-1385,-1847,-2766,KT M ,50000
tes,2021,3,DIY,Sleman,Gamping,Kelapa,Aspidiotus destructor,30,1395,1860,3255,1,466,-1388,-1851,-2772,KT M B ,50000
tes,2021,3,DIY,Sleman,Gamping,Kelapa,Batrachedra arenosella,30,1398,1864,3262,1,467,-1391,-1855,-2778,KT M ,50000
tes,2021,3,DIY,Sleman,Gamping,Kelapa,Aspidiotus destructor,30,1401,1868,3269,1,468,-1394,-1859,-2784,KT M B ,50000
tes,2021,3,DIY,Sleman,Gamping,Kelapa,Batrachedra arenosella,30,1404,1872,3276,1,469,-1397,-1863,-2790,KT M ,50000
tes,2021,3,DIY,Sleman,Gamping,Kelapa,Aspidiotus destructor,30,1407,1876,3283,1,470,-1400,-1867,-2796,KT M B ,50000
tes,2021,3,DIY,Sleman,Gamping,Kelapa,Batrachedra arenosella,30,1410,1880,3290,1,471,-1403,-1871,-2802,KT M ,50000
tes,2021,3,DIY,Sleman,Gamping,Kelapa,Aspidiotus destructor,30,1413,1884,3297,1,472,-1406,-1875,-2808,KT M B ,50000
tes,2021,3,DIY,Sleman,Gamping,Kelapa,Batrachedra arenosella,30,1416,1888,3304,1,473,-1409,-1879,-2814,KT M ,50000
tes,2021,3,DIY,Sleman,Gamping,Kelapa,Aspidiotus destructor,30,1419,1892,3311,1,474,-1412,-1883,-2820,KT M B ,50000
tes,2021,3,DIY,Sleman,Gamping,Kelapa,Batrachedra arenosella,30,1422,1896,3318,1,475,-1415,-1887,-2826,KT M ,50000
tes,2021,3,DIY,Sleman,Gamping,Kelapa,Aspidiotus destructor,30,1425,1900,3325,1,476,-1418,-1891,-2832,KT M B ,50000
tes,2021,3,DIY,Sleman,Gamping,Kelapa,Batrachedra arenosella,30,1428,1904,3332,1,477,-1421,-1895,-2838,KT M ,50000
tes,2021,3,DIY,Sleman,Gamping,Kelapa,Aspidiotus destructor,30,1431,1908,3339,1,478,-1424,-1899,-2844,KT M B ,50000
tes,2021,3,DIY,Sleman,Gamping,Kelapa,Batrachedra arenosella,30,1434,1912,3346,1,479,-1427,-1903,-2850,KT M ,50000
tes,2021,3,DIY,Sleman,Gamping,Kelapa,Aspidiotus destructor,30,1437,1916,3353,1,480,-1430,-1907,-2856,KT M B ,50000
tes,2021,3,DIY,Sleman,Gamping,Kelapa,Batrachedra arenosella,30,1440,1920,3360,1,481,-1433,-1911,-2862,KT M ,50000
tes,2021,3,DIY,Sleman,Gamping,Kelapa,Aspidiotus destructor,30,1443,1924,3367,1,482,-1436,-1915,-2868,KT M B ,50000
tes,2021,3,DIY,Sleman,Gamping,Kelapa,Batrachedra arenosella,30,1446,1928,3374,1,483,-1439,-1919,-2874,KT M ,50000
tes,2021,3,DIY,Sleman,Gamping,Kelapa,Aspidiotus destructor,30,1449,1932,3381,1,484,-1442,-1923,-2880,KT M B ,50000
tes,2021,3,DIY,Sleman,Gamping,Kelapa,Batrachedra arenosella,30,1452,1936,3388,1,485,-1445,-1927,-2886,KT M ,50000
tes,2021,3,DIY,Sleman,Gamping,Kelapa,Aspidiotus destructor,30,1455,1940,3395,1,486,-1448,-1931,-2892,KT M B ,50000
tes,2021,3,DIY,Sleman,Gamping,Kelapa,Batrachedra arenosella,30,1458,1944,3402,1,487,-1451,-1935,-2898,KT M ,50000
tes,2021,3,DIY,Sleman,Gamping,Kelapa,Aspidiotus destructor,30,1461,1948,3409,1,488,-1454,-1939,-2904,KT M B ,50000
tes,2021,3,DIY,Sleman,Gamping,Kelapa,Batrachedra arenosella,30,1464,1952,3416,1,489,-1457,-1943,-2910,KT M ,50000
tes,2021,3,DIY,Sleman,Gamping,Kelapa,Aspidiotus destructor,30,1467,1956,3423,1,490,-1460,-1947,-2916,KT M B ,50000
tes,2021,3,DIY,Sleman,Gamping,Kelapa,Batrachedra arenosella,30,1470,1960,3430,1,491,-1463,-1951,-2922,KT M ,50000
tes,2021,3,DIY,Sleman,Gamping,Kelapa,Aspidiotus destructor,30,1473,1964,3437,1,492,-1466,-1955,-2928,KT M B ,50000
tes,2021,3,DIY,Sleman,Gamping,Kelapa,Batrachedra arenosella,30,1476,1968,3444,1,493,-1469,-1959,-2934,KT M ,50000
tes,2021,3,DIY,Sleman,Gamping,Kelapa,Aspidiotus destructor,30,1479,1972,3451,1,494,-1472,-1963,-2940,KT M B ,50000
tes,2021,3,DIY,Sleman,Gamping,Kelapa,Batrachedra arenosella,30,1482,1976,3458,1,495,-1475,-1967,-2946,KT M ,50000
tes,2021,3,DIY,Sleman,Gamping,Kelapa,Aspidiotus destructor,30,1485,1980,3465,1,496,-1478,-1971,-2952,KT M B ,50000
tes,2021,3,DIY,Sleman,Gamping,Kelapa,Batrachedra arenosella,30,1488,1984,3472,1,497,-1481,-1975,-2958,KT M ,50000
tes,2021,3,DIY,Sleman,Gamping,Kelapa,Aspidiotus destructor,30,1491,1988,3479,1,498,-1484,-1979,-2964,KT M B ,50000
tes,2021,3,DIY,Sleman,Gamping,Kelapa,Batrachedra arenosella,30,1494,1992,3486,1,499,-1487,-1983,-2970,KT M ,50000
tes,2021,3,DIY,Sleman,Gamping,Kelapa,Aspidiotus destructor,30,1497,1996,3493,1,500,-1490,-1987,-2976,KT M B ,50000
tes,2021,3,DIY,Sleman,Gamping,Kelapa,Batrachedra arenosella,30,1500,2000,3500,1,501,-1493,-1991,-2982,KT M ,50000
tes,2021,3,DIY,Sleman,Gamping,Kelapa,Aspidiotus destructor,30,1503,2004,3507,1,502,-1496,-1995,-2988,KT M B ,50000
tes,2021,3,DIY,Sleman,Gamping,Kelapa,Batrachedra arenosella,30,1506,2008,3514,1,503,-1499,-1999,-2994,KT M ,50000
tes,2021,3,DIY,Sleman,Gamping,Kelapa,Aspidiotus destructor,30,1509,2012,3521,1,504,-1502,-2003,-3000,KT M B ,50000
tes,2021,3,DIY,Sleman,Gamping,Kelapa,Batrachedra arenosella,30,1512,2016,3528,1,505,-1505,-2007,-3006,KT M ,50000
tes,2021,3,DIY,Sleman,Gamping,Kelapa,Aspidiotus destructor,30,1515,2020,3535,1,506,-1508,-2011,-3012,KT M B ,50000
tes,2021,3,DIY,Sleman,Gamping,Kelapa,Batrachedra arenosella,30,1518,2024,3542,1,507,-1511,-2015,-3018,KT M ,50000
tes,2021,3,DIY,Sleman,Gamping,Kelapa,Aspidiotus destructor,30,1521,2028,3549,1,508,-1514,-2019,-3024,KT M B ,50000
